/* FileName: _readme.txt
* Description: This file describes the purpose of this directory.
* 
* Date				Change Description							Author
* ---------			---------------------------						-------
* 17/03/2016	 		Initial file creation							SMandal
*
*/			 

This directory is used to store the logs being generated by Queueload
